…
Calculating the ROC and AUC (Area under the curve). We use the package `yardstick` to 
create the ROC and AUC curve

```{r , echo = T, comment = NA, tidy = T, tidy.opts=list(width.cutoff=60)}

comment_classes <- classifications %>%
  left_join(books %>%
              select(title, document), by = "document") %>%
  mutate(title = as.factor(title))
comment_classes
glimpse(comment_classes)
# A tibble: 3,993 x 4
# document  score probability title                
# <int>  <dbl>       <dbl> <fct>                
# 1        8 -1.62       0.202  The War of the Worlds
# 2        9 -0.467      0.444  The War of the Worlds
# 3       19  0.421      0.660  The War of the Worlds
# 4       24 -0.442      0.451  The War of the Worlds
# 5       27 -0.550      0.424  The War of the Worlds
# 6       42 -2.91       0.0648 The War of the Worlds
# 7       47 -0.938      0.333  The War of the Worlds
# 8       52 -1.13       0.293  The War of the Worlds
# 9       56 -0.445      0.450  The War of the Worlds
# 10       64 -2.14       0.131  The War of the Worlds
# # … with 3,983 more rows
…
