…
chapters_dtm
#> <<DocumentTermMatrix (documents: 193, terms: 18215)>>
#> Non-/sparse entries: 104721/3410774
#> Sparsity           : 97%
#> Maximal term length: 19
#> Weighting          : term frequency (tf)

# Use the LDA function to create a four topic model k = 4) and then ...
chapters_lda <- LDA(chapters_dtm, k = 4, control = list(seed = 1234))
chapters_lda
#> A LDA_VEM topic model with 4 topics.
# ... examine per-topic-per-word probabilities
chapter_topics <- tidy(chapters_lda, matrix = "beta")
chapter_topics
#> # A tibble: 72,860 x 3
#>    topic term        beta
#>    <int> <chr>      <dbl>
#>  1     1 joe     5.83e-17
#>  2     2 joe     3.19e-57
#>  3     3 joe     4.16e-24
#>  4     4 joe     1.45e- 2
#>  5     1 biddy   7.85e-27
#>  6     2 biddy   4.67e-69
#>  7     3 biddy   2.26e-46
#>  8     4 biddy   4.77e- 3
#>  9     1 estella 3.83e- 6
#> 10     2 estella 5.32e-65
#> # … with 72,850 more rows
…
As you can see above, the words in each of the topics recovered are very closely allied to the book aligned with that topic. Hence, the words: “captain”, “nautilus”, “sea”, and “nemo” belongs to Twenty Thousand Leagues Under the Sea, and that 
"mr", emma", "miss" and "must" belong to Emma. 
We see that “said” and “joe” are from Great Expectations. We also notice that, in line with LDA being a “fuzzy clustering” method, there can be words in common between multiple topics, such as “miss” in topics 1 and 4, and “time” in topics 3 and 4.


Each document in this analysis represented a single chapter. Therefore, we may want to know which topics are closest in their association with each document. We now need to put the chapters back together again and we therefore want to know which topics are associated with each document. 

## Chapter 4.3.2 - Per-document classification


```{r, echo = T, comment = NA, tidy = T, tidy.opts=list(width.cutoff=60)}
chapters_gamma <- tidy(chapters_lda, matrix = "gamma")
chapters_gamma
# # A tibble: 772 x 3
#    document                 topic     gamma
#    <chr                    <int     <dbl
#  1 Great Expectations_57        1 0.0000135
#  2 Great Expectations_7         1 0.0000147
#  3 Great Expectations_17        1 0.0000212
#  4 Great Expectations_27        1 0.0000192
#  5 Great Expectations_38        1 0.354    
#  6 Great Expectations_2         1 0.0000172
#  7 Great Expectations_23        1 0.551    
#  8 Great Expectations_15        1 0.0168   
#  9 Great Expectations_18        1 0.0000127
# 10 The War of the Worlds_16     1 0.0000108
# # … with 762 more rows
…
```

Each of these values is an estimated proportion of words from each document that are generated from that topic. For example, the model estimates that each word in the Great Expectations_7 document has only a 0% probability of coming from topic 1 (Pride and Prejudice).

Now that we have seen topic probabilities, we can determine how well our unsupervised learning did at distinguishing the four books. 

We first separate the document name into title and chapter using the separate function. We had earlier united the title and chapter. We then use ggplot2 to visualize the per-document-per-topic probability for each topic.

```{r, echo = T, comment = NA, tidy = T, tidy.opts=list(width.cutoff=60)}
chapters_gamma <- chapters_gamma %>%
  separate(document, c("title", "chapter"), sep = "_", convert = TRUE)

chapters_gamma
#> # A tibble: 772 x 4
#>    title                 chapter topic     gamma
#>    <chr>                   <int> <int>     <dbl>
#>  1 Great Expectations         57     1 0.0000135
#>  2 Great Expectations          7     1 0.0000147
#>  3 Great Expectations         17     1 0.0000212
#>  4 Great Expectations         27     1 0.0000192
#>  5 Great Expectations         38     1 0.354    
#>  6 Great Expectations          2     1 0.0000172
#>  7 Great Expectations         23     1 0.551    
#>  8 Great Expectations         15     1 0.0168   
#>  9 Great Expectations         18     1 0.0000127
#> 10 The War of the Worlds      16     1 0.0000108
#> # … with 762 more rows
…
We notice above that all the chapters from Pride and Prejudice, War of the Worlds, and Twenty Thousand Leagues Under the Sea were uniquely identified as a single topic each.

However, it does look like some chapters from Great Expectations which is topic 3, were somewhat associated with other topics. Are there any cases where the topic most associated with a chapter belonged to another book? First we need to find the topic that was most associated with each chapter using top_n(), which is effectively the “classification” of that chapter.

In the code below we take the chapters_gamma dataframe and group it by title and chapter and then use the slice_max function to select the rows with the highest values of the gamma variable.

```{r, echo = T, comment = NA, tidy = T, tidy.opts=list(width.cutoff=60)}
chapter_classifications <- chapters_gamma %>%
  group_by(title, chapter) %>%
  slice_max(gamma) %>%
  ungroup()

chapter_classifications
# # A tibble: 187 x 4
#    title chapter topic gamma
#    <chr>   <int> <int> <dbl>
#  1 Emma        1     1  1.00
#  2 Emma        2     1  1.00
#  3 Emma        3     1  1.00
#  4 Emma        4     1  1.00
#  5 Emma        5     1  1.00
#  6 Emma        6     1  1.00
#  7 Emma        7     1  1.00
#  8 Emma        8     1  1.00
#  9 Emma        9     1  1.00
# 10 Emma       10     1  1.00
# # … with 177 more rows
```
…
* Every topic in turns consists of a mixture of words. 

We have estimated earlier the per-topic-per-word probabilities, called `beta` and `gamma` which are the per-document-per-topic probabilities. 

## Chapter 4.3.3 - By word assignments: augment

One step of the LDA algorithm is assigning each word in each document to a topic. 
The more words in a document are assigned to that topic, generally, the more weight (gamma) will go on that document-topic classification. 

We therefore take the original document-word pairs and find which words in each document were assigned to which topic. This is the job of the augment() function, which also originated in the broom package as a way of tidying model output. While tidy() retrieves the statistical components of the model, augment() uses a model to add information to each observation in the original data.

```{r, echo = T, comment = NA, tidy = T, tidy.opts=list(width.cutoff=60)}
assignments <- augment(chapters_lda, data = chapters_dtm)
assignments
#> # A tibble: 104,721 x 4
#>    document              term  count .topic
#>    <chr>                 <chr> <dbl>  <dbl>
#>  1 Great Expectations_57 joe      88      4
#>  2 Great Expectations_7  joe      70      4
#>  3 Great Expectations_17 joe       5      4
#>  4 Great Expectations_27 joe      58      4
#>  5 Great Expectations_2  joe      56      4
#>  6 Great Expectations_23 joe       1      4
#>  7 Great Expectations_15 joe      50      4
#>  8 Great Expectations_18 joe      50      4
#>  9 Great Expectations_9  joe      44      4
#> 10 Great Expectations_13 joe      40      4
#> # … with 104,711 more rows
```


This returns a tidy data frame of book-term counts, but adds an extra column: .topic, with the topic each term was assigned to within each document. (Extra columns added by augment always start with ., to prevent overwriting existing columns). We can combine this assignments table with the consensus book titles to find which words were incorrectly classified.


```{r, echo = T, comment = NA, tidy = T, tidy.opts=list(width.cutoff=60)}
assignments <- assignments %>%
  separate(document, c("title", "chapter"), 
           sep = "_", convert = TRUE) %>%
  inner_join(book_topics, by = c(".topic" = "topic"))

assignments
#> # A tibble: 104,721 x 6
#>    title               chapter term  count  .topic   consensus         
#>    <chr>                <int> <chr> <dbl>  <dbl> <chr>             
#>  1 Great Expectations      57 joe      88      4 Great Expectations
#>  2 Great Expectations       7 joe      70      4 Great Expectations
#>  3 Great Expectations      17 joe       5      4 Great Expectations
#>  4 Great Expectations      27 joe      58      4 Great Expectations
#>  5 Great Expectations       2 joe      56      4 Great Expectations
#>  6 Great Expectations      23 joe       1      4 Great Expectations
#>  7 Great Expectations      15 joe      50      4 Great Expectations
#>  8 Great Expectations      18 joe      50      4 Great Expectations
#>  9 Great Expectations       9 joe      44      4 Great Expectations
#> 10 Great Expectations      13 joe      40      4 Great Expectations
#> # … with 104,711 more rows
```
…
Iin the above visualization, we observe that almost all the words for Emma, Twenty Thousand Leagues Under the Sea were correctly assigned, while Great Expectations had a fair number of misassigned words and we have already seen earlier that two chapters were misclassified).

What were the most commonly mistaken words?

```{r, echo = T, comment = NA, tidy = T, tidy.opts=list(width.cutoff=60)}
wrong_words <- assignments %>%
  filter(title != consensus)

wrong_words
# # A tibble: 3,398 x 6
#    title                        chapter term    count .topic consensus                
#    <chr>                          <int> <chr>   <dbl>  <dbl> <chr>                    
#  1 Emma                              40 pocket      2      3 Great Expectations       
#  2 Twenty Thousand Leagues und…       8 miss        1      3 Great Expectations       
#  3 Great Expectations                54 us         43      4 The War of the Worlds  
#  4 Great Expectations                 1 us          2      4 The War of the Worlds    
#  5 Great Expectations                 3 us          2      4 The War of the Worlds    
#  6 Great Expectations                 5 sergea…    37      4 The War of the Worlds    
#  7 Great Expectations                46 captain     1      2 Twenty Thousand Leagues und…
#  8 Great Expectations                32 captain     1      2 Twenty Thousand Leagues und…
#  9 The War of the Worlds             17 captain     5      2 Twenty Thousand Leagues und…
# 10 Great Expectations                54 sea         2      4 The War of the Worlds       
# # … with 3,388 more rows
…
