…
book_words <- austen_books() %>%
  unnest_tokens(word, text) %>%
  count(book, word, sort = TRUE)

total_words <- book_words %>% 
  group_by(book) %>% 
  summarize(total = sum(n))

book_words <- left_join(book_words, total_words)

book_words
#> # A tibble: 40,379 x 4
#>    book              word      n  total
#>    <fct>             <chr> <int>  <int>
#>  1 Mansfield Park    the    6206 160460
#>  2 Mansfield Park    to     5475 160460
#>  3 Mansfield Park    and    5438 160460
#>  4 Emma              to     5239 160996
#>  5 Emma              the    5201 160996
#>  6 Emma              and    4896 160996
#>  7 Mansfield Park    of     4778 160460
#>  8 Pride & Prejudice the    4331 122204
#>  9 Emma              of     4291 160996
#> 10 Pride & Prejudice to     4162 122204
#> # … with 40,369 more rows
…
Zipf’s law states that the frequency that a word appears is inversely proportional to its rank.

Since we have the data frame we used to plot term frequency, we can examine Zipf’s law for Jane Austen’s novels with just a few lines of dplyr functions.


```{r, echo = T, comment = NA, tidy = T, tidy.opts=list(width.cutoff=60)}
freq_by_rank <- book_words %>% 
  group_by(book) %>% 
  mutate(rank = row_number(), 
         `term frequency` = n/total) %>%
  ungroup()

freq_by_rank
#> # A tibble: 40,379 x 6
#>    book              word      n  total  rank `term frequency`
#>    <fct>             <chr> <int>  <int> <int>            <dbl>
#>  1 Mansfield Park    the    6206 160460     1           0.0387
#>  2 Mansfield Park    to     5475 160460     2           0.0341
#>  3 Mansfield Park    and    5438 160460     3           0.0339
#>  4 Emma              to     5239 160996     1           0.0325
#>  5 Emma              the    5201 160996     2           0.0323
#>  6 Emma              and    4896 160996     3           0.0304
#>  7 Mansfield Park    of     4778 160460     4           0.0298
#>  8 Pride & Prejudice the    4331 122204     1           0.0354
#>  9 Emma              of     4291 160996     4           0.0267
#> 10 Pride & Prejudice to     4162 122204     2           0.0341
#> # … with 40,369 more rows
…
## 3.4 The bind_tf_idf function

The idea of tf-idf is to find the important words for the content of each document by decreasing the weight for commonly used words and increasing the weight for words that are not used very much in a collection or corpus of documents, in this case, the group of Jane Austen’s novels as a whole. Calculating tf-idf attempts to find the words that are important (i.e., common) in a text, but not too common. We can do that using the bind_tf_idf function.

The bind_tf_idf() function in the tidytext package takes a tidy text dataset as input with one row per token (term), per document. One column (word here) contains the terms/tokens, one column contains the documents (book in this case), and the last necessary column contains the counts, how many times each document contains each term (n in this example). We calculated a total for each book for our explorations in previous sections, but it is not necessary for the bind_tf_idf() function; the table only needs to contain all the words in each document.


```{r, echo = T, comment = NA, tidy = T, tidy.opts=list(width.cutoff=60)}
book_tf_idf <- book_words %>%
  bind_tf_idf(word, book, n)

book_tf_idf
#> # A tibble: 40,379 x 7
#>    book              word      n  total     tf   idf tf_idf
#>    <fct>             <chr> <int>  <int>  <dbl> <dbl>  <dbl>
#>  1 Mansfield Park    the    6206 160460 0.0387     0      0
#>  2 Mansfield Park    to     5475 160460 0.0341     0      0
#>  3 Mansfield Park    and    5438 160460 0.0339     0      0
#>  4 Emma              to     5239 160996 0.0325     0      0
#>  5 Emma              the    5201 160996 0.0323     0      0
#>  6 Emma              and    4896 160996 0.0304     0      0
#>  7 Mansfield Park    of     4778 160460 0.0298     0      0
#>  8 Pride & Prejudice the    4331 122204 0.0354     0      0
#>  9 Emma              of     4291 160996 0.0267     0      0
#> 10 Pride & Prejudice to     4162 122204 0.0341     0      0
#> # … with 40,369 more rows
…
You will observe above that idf and thus tf-idf are zero for these extremely common words. These are all words that appear in all six of Jane Austen’s novels, so the idf term (which will then be the natural log of 1) is zero. The inverse document frequency (and thus tf-idf) is very low (near zero) for words that occur in many of the documents in a collection; this is how this approach decreases the weight for common words. The inverse document frequency will be a higher number for words that occur in fewer of the documents in the collection.

We can examine the terms with high tf_idf in Jane Austen's works. 
 
Here we see all proper nouns, names that are in fact important in these novels. None of them occur in all of novels, and they are important, characteristic words for each text within the corpus of Jane Austen’s novels.

Some of the values for idf are the same for different terms because there are 6 documents in this corpus and we are seeing the numerical value for ln(6/1), ln(6/2) etc. The number of documents is 6 and there is only one document that has that name say "Emma". hence ln(6/1) = 1.79
 
 

```{r, echo = T, comment = NA, tidy = T, tidy.opts=list(width.cutoff=60)}
book_tf_idf %>%
  select(-total) %>%
  arrange(desc(tf_idf))
#> # A tibble: 40,379 x 6
#>    book                word          n      tf   idf  tf_idf
#>    <fct>               <chr>     <int>   <dbl> <dbl>   <dbl>
#>  1 Sense & Sensibility elinor      623 0.00519  1.79 0.00931
#>  2 Sense & Sensibility marianne    492 0.00410  1.79 0.00735
#>  3 Mansfield Park      crawford    493 0.00307  1.79 0.00551
#>  4 Pride & Prejudice   darcy       373 0.00305  1.79 0.00547
#>  5 Persuasion          elliot      254 0.00304  1.79 0.00544
#>  6 Emma                emma        786 0.00488  1.10 0.00536
#>  7 Northanger Abbey    tilney      196 0.00252  1.79 0.00452
#>  8 Emma                weston      389 0.00242  1.79 0.00433
#>  9 Pride & Prejudice   bennet      294 0.00241  1.79 0.00431
#> 10 Persuasion          wentworth   191 0.00228  1.79 0.00409
#> # … with 40,369 more rows
…
Let us work with another corpus of documents, to see what terms are important in a different set of works. Leave the world of fiction and narrative entirely let us examine some classic physics texts from Project Gutenberg and see what terms are important in these works, as measured by tf-idf. We will download Discourse on Floating Bodies by Galileo Galilei, Treatise on Light by Christiaan Huygens, Experiments with Alternate Currents of High Potential and High Frequency by Nikola Tesla, and Relativity: The Special and General Theory by Albert Einstein.

This is a pretty diverse bunch. They may all be physics classics, but they were written across a 300-year timespan, and some of them were first written in other languages and then translated to English. Perfectly homogeneous these are not, but that does not stop this from being an interesting exercise!

```{r, echo = T, comment = NA, tidy = T, tidy.opts=list(width.cutoff=60)}
library(gutenbergr)
physics <- gutenberg_download(c(37729, 14725, 13476, 30155), 
                              meta_fields = "author",mirror ="http://mirrors.xmission.com/gutenberg/")
physics_words <- physics %>%
  unnest_tokens(word, text) %>%
  count(author, word, sort = TRUE)

physics_words
#> # A tibble: 12,671 x 3
#>    author              word      n
#>    <chr>               <chr> <int>
#>  1 Galilei, Galileo    the    3760
#>  2 Tesla, Nikola       the    3604
#>  3 Huygens, Christiaan the    3553
#>  4 Einstein, Albert    the    2993
#>  5 Galilei, Galileo    of     2049
#>  6 Einstein, Albert    of     2028
#>  7 Tesla, Nikola       of     1737
#>  8 Huygens, Christiaan of     1708
#>  9 Huygens, Christiaan to     1207
#> 10 Tesla, Nikola       a      1176
#> # … with 12,661 more rows
…
