…
## 2.4 Sentiment Analysis with inner join

Since we have several options for sentiment lexicons, we might want some more information on which one is appropriate for your purposes. Let us use all three sentiment lexicons and examine how the sentiment changes across the narrative arc of Pride and Prejudice. First, let us filter() to choose only the words from the one novel we are interested in which fro this exercise is "Pride and Prejudice".

```{r, echo = T, comment = NA, tidy = T, tidy.opts=list(width.cutoff=60)}
pride_prejudice <- tidy_books %>% 
  filter(book == "Pride & Prejudice")

pride_prejudice
#> # A tibble: 122,204 x 4
#>    book              linenumber chapter word     
#>    <fct>                  <int>   <int> <chr>    
#>  1 Pride & Prejudice          1       0 pride    
#>  2 Pride & Prejudice          1       0 and      
#>  3 Pride & Prejudice          1       0 prejudice
#>  4 Pride & Prejudice          3       0 by       
#>  5 Pride & Prejudice          3       0 jane     
#>  6 Pride & Prejudice          3       0 austen   
#>  7 Pride & Prejudice          7       1 chapter  
#>  8 Pride & Prejudice          7       1 1        
#>  9 Pride & Prejudice         10       1 it       
#> 10 Pride & Prejudice         10       1 is       
#> # … with 122,194 more rows
```
…
## 2.5 Most common positive and negative words

One advantage of having the data frame with both sentiment and word is that we can analyze word counts that contribute to each sentiment. By implementing count() here with arguments of both word and sentiment, we find out how much each word contributed to each sentiment.
To visualize the results we pipe the results into ggplot2.


```{r, echo = T, comment = NA, tidy = T, tidy.opts=list(width.cutoff=60)}
bing_word_counts <- tidy_books %>%
  inner_join(get_sentiments("bing")) %>%
  count(word, sentiment, sort = TRUE) %>%
  ungroup()

bing_word_counts
#> # A tibble: 2,585 x 3
#>    word     sentiment     n
#>    <chr>    <chr>     <int>
#>  1 miss     negative   1855
#>  2 well     positive   1523
#>  3 good     positive   1380
#>  4 great    positive    981
#>  5 like     positive    725
#>  6 better   positive    639
#>  7 enough   positive    613
#>  8 happy    positive    534
#>  9 love     positive    495
#> 10 pleasure positive    462
#> # … with 2,575 more rows
…
